﻿{
  "placeShips": "Разместите следующие корабли <br /> 4-парусный - 1 <br /> 3-парусный - 2 <br /> 2-парусный - 3 <br /> 1-парусный - 4 <br />",
  "makeSteps":  "Игроки поочередно должны делать свои ходы в виде выстрелов по вражескому полю"
}
